Intro to R for Limnology
…
3.2.5 Transforming columns

Another typical task when working with data is to manipulate column variables. The mutate() function allows us to either manipulate existing variables or create new ones.

Lets say we need to convert the body mass measurements we took from grams to kilograms, but keeping both variables:

penguins %>% 
  mutate(
    body_mass_kg = body_mass_g / 1000
  )

## # A tibble: 344 x 9
##    species island bill_length_mm bill_depth_mm flipper_length_~ body_mass_g
##    <fct>   <fct>           <dbl>         <dbl>            <int>       <int>
##  1 Adelie  Torge~           39.1          18.7              181        3750
##  2 Adelie  Torge~           39.5          17.4              186        3800
##  3 Adelie  Torge~           40.3          18                195        3250
##  4 Adelie  Torge~           NA            NA                 NA          NA
##  5 Adelie  Torge~           36.7          19.3              193        3450
##  6 Adelie  Torge~           39.3          20.6              190        3650
##  7 Adelie  Torge~           38.9          17.8              181        3625
##  8 Adelie  Torge~           39.2          19.6              195        4675
##  9 Adelie  Torge~           34.1          18.1              193        3475
## 10 Adelie  Torge~           42            20.2              190        4250
## # ... with 334 more rows, and 3 more variables: sex <fct>, year <int>,
## #   body_mass_kg <dbl>
…
3.2.6 Transforming everything

Sometimes we need to reshape our data depending on the format the dataframe is in. Both pivot_longer() and pivot_wider() allow for this. Our current penguin dataframe is in a wide format. Say that we want to create a new variable measurement that includes the measurement variables and then a value variable to contain the value:

penguins %>% 
  pivot_longer(cols = bill_length_mm:body_mass_g, 
               names_to = "measurement", 
               values_to = "value")

## # A tibble: 1,376 x 6
##    species island    sex     year measurement        value
##    <fct>   <fct>     <fct>  <int> <chr>              <dbl>
##  1 Adelie  Torgersen male    2007 bill_length_mm      39.1
##  2 Adelie  Torgersen male    2007 bill_depth_mm       18.7
##  3 Adelie  Torgersen male    2007 flipper_length_mm  181  
##  4 Adelie  Torgersen male    2007 body_mass_g       3750  
##  5 Adelie  Torgersen female  2007 bill_length_mm      39.5
##  6 Adelie  Torgersen female  2007 bill_depth_mm       17.4
##  7 Adelie  Torgersen female  2007 flipper_length_mm  186  
##  8 Adelie  Torgersen female  2007 body_mass_g       3800  
##  9 Adelie  Torgersen female  2007 bill_length_mm      40.3
## 10 Adelie  Torgersen female  2007 bill_depth_mm       18  
## # ... with 1,366 more rows

We can see that pivot_longer() gathered all of the measurement variables into measurement and the values into value. This type of transformation wouldnt be a good idea with the penguin data but pivot_longer() can be useful in other cases. Well see how its handy when working with our profile data.

3.2.7 Selecting the penguins you want

One final thing before we move on to visualizing the penguin data. It is common to want to filter specific values in a dataframe. The filter() function in dplyr allows us to quickly do this. Lets say we only want penguins that were measured on Dream Island. We can filter the penguins dataframe with one line of code:

penguins %>% 
  filter(island == "Dream")

## # A tibble: 124 x 8
##    species island bill_length_mm bill_depth_mm flipper_length_~ body_mass_g
##    <fct>   <fct>           <dbl>         <dbl>            <int>       <int>
##  1 Adelie  Dream            39.5          16.7              178        3250
##  2 Adelie  Dream            37.2          18.1              178        3900
##  3 Adelie  Dream            39.5          17.8              188        3300
##  4 Adelie  Dream            40.9          18.9              184        3900
##  5 Adelie  Dream            36.4          17                195        3325
##  6 Adelie  Dream            39.2          21.1              196        4150
##  7 Adelie  Dream            38.8          20                190        3950
##  8 Adelie  Dream            42.2          18.5              180        3550
##  9 Adelie  Dream            37.6          19.3              181        3300
## 10 Adelie  Dream            39.8          19.1              184        4650
## # ... with 114 more rows, and 2 more variables: sex <fct>, year <int>
…
